

sub win2koi {
    my $str = shift;
    $str =~ tr[\xC0-\xFF\xA8\xB8][\xE1\xE2\xF7\xE7\xE4\xE5\xF6\xFA\xE9\xEA\xEB\xEC\xED\xEE\xEF\xF0\xF2\xF3\xF4\xF5\xE6\xE8\xE3\xFE\xFB\xFD\xFF\xF9\xF8\xFC\xE0\xF1\xC1\xC2\xD7\xC7\xC4\xC5\xD6\xDA\xC9\xCA\xCB\xCC\xCD\xCE\xCF\xD0\xD2\xD3\xD4\xD5\xC6\xC8\xC3\xDE\xDB\xDD\xDF\xD9\xD8\xDC\xC0\xD1\xB3\xA3];
    return $str;
}

sub koi2win {
    my $str = shift;
    $str =~ tr[\xE1\xE2\xF7\xE7\xE4\xE5\xF6\xFA\xE9\xEA\xEB\xEC\xED\xEE\xEF\xF0\xF2\xF3\xF4\xF5\xE6\xE8\xE3\xFE\xFB\xFD\xFF\xF9\xF8\xFC\xE0\xF1\xC1\xC2\xD7\xC7\xC4\xC5\xD6\xDA\xC9\xCA\xCB\xCC\xCD\xCE\xCF\xD0\xD2\xD3\xD4\xD5\xC6\xC8\xC3\xDE\xDB\xDD\xDF\xD9\xD8\xDC\xC0\xD1\xB3\xA3][\xC0-\xFF\xA8\xB8];
    return $str;
}

sub win2dos {
    my $str = shift;
    $str =~ tr[\xC0-\xFF\xA8\xB8][\x80\x81\x82\x83\x84\x85\x86\x87\x88\x89\x8A\x8B\x8C\x8D\x8E\x8F\x90\x91\x92\x93\x94\x95\x96\x97\x98\x99\x9A\x9B\x9C\x9D\x9E\x9F\xA0\xA1\xA2\xA3\xA4\xA5\xA6\xA7\xA8\xA9\xAA\xAB\xAC\xAD\xAE\xAF\xE0\xE1\xE2\xE3\xE4\xE5\xE6\xE7\xE8\xE9\xEA\xEB\xEC\xED\xEE\xEF\xF0\xF1];
    return $str;
}

sub dos2win {
    my $str = shift;
    $str =~ tr[\x80\x81\x82\x83\x84\x85\x86\x87\x88\x89\x8A\x8B\x8C\x8D\x8E\x8F\x90\x91\x92\x93\x94\x95\x96\x97\x98\x99\x9A\x9B\x9C\x9D\x9E\x9F\xA0\xA1\xA2\xA3\xA4\xA5\xA6\xA7\xA8\xA9\xAA\xAB\xAC\xAD\xAE\xAF\xE0\xE1\xE2\xE3\xE4\xE5\xE6\xE7\xE8\xE9\xEA\xEB\xEC\xED\xEE\xEF\xF0\xF1][\xC0-\xFF\xA8\xB8];
    return $str;
}

sub dos2koi {
    my $str = shift;
    $str =~ tr[\x80\x81\x82\x83\x84\x85\x86\x87\x88\x89\x8A\x8B\x8C\x8D\x8E\x8F\x90\x91\x92\x93\x94\x95\x96\x97\x98\x99\x9A\x9B\x9C\x9D\x9E\x9F\xA0\xA1\xA2\xA3\xA4\xA5\xA6\xA7\xA8\xA9\xAA\xAB\xAC\xAD\xAE\xAF\xE0\xE1\xE2\xE3\xE4\xE5\xE6\xE7\xE8\xE9\xEA\xEB\xEC\xED\xEE\xEF\xF0\xF1][\xE1\xE2\xF7\xE7\xE4\xE5\xF6\xFA\xE9\xEA\xEB\xEC\xED\xEE\xEF\xF0\xF2\xF3\xF4\xF5\xE6\xE8\xE3\xFE\xFB\xFD\xFF\xF9\xF8\xFC\xE0\xF1\xC1\xC2\xD7\xC7\xC4\xC5\xD6\xDA\xC9\xCA\xCB\xCC\xCD\xCE\xCF\xD0\xD2\xD3\xD4\xD5\xC6\xC8\xC3\xDE\xDB\xDD\xDF\xD9\xD8\xDC\xC0\xD1\xB3\xA3];
    return $str;
}

sub koi2dos {
    my $str = shift;
    $str =~ tr[\xE1\xE2\xF7\xE7\xE4\xE5\xF6\xFA\xE9\xEA\xEB\xEC\xED\xEE\xEF\xF0\xF2\xF3\xF4\xF5\xE6\xE8\xE3\xFE\xFB\xFD\xFF\xF9\xF8\xFC\xE0\xF1\xC1\xC2\xD7\xC7\xC4\xC5\xD6\xDA\xC9\xCA\xCB\xCC\xCD\xCE\xCF\xD0\xD2\xD3\xD4\xD5\xC6\xC8\xC3\xDE\xDB\xDD\xDF\xD9\xD8\xDC\xC0\xD1\xB3\xA3][\x80\x81\x82\x83\x84\x85\x86\x87\x88\x89\x8A\x8B\x8C\x8D\x8E\x8F\x90\x91\x92\x93\x94\x95\x96\x97\x98\x99\x9A\x9B\x9C\x9D\x9E\x9F\xA0\xA1\xA2\xA3\xA4\xA5\xA6\xA7\xA8\xA9\xAA\xAB\xAC\xAD\xAE\xAF\xE0\xE1\xE2\xE3\xE4\xE5\xE6\xE7\xE8\xE9\xEA\xEB\xEC\xED\xEE\xEF\xF0\xF1];
    return $str;
}


